{
  "profiles": {
    "file-operations": {
      "commandName": "Executable",
      "executablePath": "C:\\Users\\tyler\\GitLab\\file-operations\\bin\\Debug\\netcoreapp3.1\\file-operations.exe"
    }
  }
}